{
  "DownstreamPathTemplate": "/api/{path}",
  "DownstreamScheme": "http",
  "DownstreamHostAndPorts": [
    {
      "Host": "quack-service",
      "Port": 5002
    }
  ],
  "UpstreamPathTemplate": "/quackapi/{path}",
  "UpstreamHttpMethod": [ "Post", "Patch", "Put", "Delete" ],
  "AuthenticationOptions": {
    "AuthenticationProviderKey": "Auth0",
    "AllowedScopes": []
  },
  "AddHeadersToRequest": {
    "UserId": "Claims[https://quacker.live/quackerid] > value"
  }
}