{
  "DownstreamPathTemplate": "/api/quacks/trends",
  "DownstreamScheme": "http",
  "DownstreamHostAndPorts": [
    {
      "Host": "quack-service",
      "Port": 5002
    }
  ],
  "UpstreamPathTemplate": "/quackapi/home/trends",
  "UpstreamHttpMethod": [ "Get" ],
  "Key": "hashtagTrends"

}