{
    "DownstreamPathTemplate": "/api/users/{userid}",
    "DownstreamScheme": "http",
    "DownstreamHostAndPorts": [
      {
        "Host": "quack-service",
        "Port": 5002
      }
    ],
    "UpstreamPathTemplate": "/quackapi/users/{userid}",
    "UpstreamHttpMethod": ["Get"],
    "Key": "tweetProfile"
}