{
  "iisSettings": {
    "windowsAuthentication": false,
    "anonymousAuthentication": true,
    "iisExpress": {
      "applicationUrl": "http://localhost:54992",
      "sslPort": 44322
    }
  },
  "$schema": "http://json.schemastore.org/launchsettings.json",
  "profiles": {
    "IIS Express": {
      "commandName": "IISExpress",
      "launchUrl": "weatherforecast",
      "environmentVariables": {
        "ASPNETCORE_ENVIRONMENT": "Development"
      }
    },
    "OcelotApiGateway": {
      "commandName": "Project",
      "launchUrl": "weatherforecast",
      "environmentVariables": {
        "ASPNETCORE_ENVIRONMENT": "Development"
      },
      "applicationUrl": "https://localhost:443;http://localhost:80"
    },
    "Docker": {
      "commandName": "Docker",
      "commandLineArgs": "--name=\"applesarecool\" --network=\"quackernet\" --volume =\"~/.aspnet/https:/https:ro\" -p=\"5000:5000\"",
      "launchUrl": "{Scheme}://{ServiceHost}:{ServicePort}/weatherforecast",
      "environmentVariables": {
        "ASPNETCORE_ENVIRONMENT": "Development"
      },
      "publishAllPorts": true,
      "useSSL": true
    }
  }
}